{
  "page": 1,
  "total_results": 10000,
  "total_pages": 500,
  "results": [
    {
      "popularity": 461.929,
      "id": 475557,
      "video": false,
      "vote_count": 5330,
      "vote_average": 8.5,
      "title": "Coringa",
      "release_date": "2019-10-02",
      "original_language": "en",
      "original_title": "Joker",
      "genre_ids": [
        80,
        53,
        18
      ],
      "backdrop_path": "\/n6bUvigpRFqSwmPp1m2YADdbRBc.jpg",
      "adult": false,
      "overview": "Coringa é uma história original do vilão nunca antes vista no cinema. Arthur Fleck (Joaquin Phoenix) trabalha como palhaço para uma agência de talentos e, toda semana, precisa comparecer a uma agente social, devido aos seus conhecidos problemas mentais. Após ser demitido, Fleck reage mal à gozação de três homens em pleno metrô e os mata. Os assassinatos iniciam um movimento popular contra a elite de Gotham City, da qual Thomas Wayne (Brett Cullen) é seu maior representante. A versão de Phillips sobre Arthur Fleck, um homem desprezado pela sociedade, não é só uma visão realista do personagem, mas também uma lição de vida.",
      "poster_path": "\/dJnXQL6Aa4s26eaORTvy0zRskfh.jpg"
    },
    {
      "popularity": 270.155,
      "vote_count": 511,
      "video": false,
      "poster_path": "\/n3UPpv92zviV5l0tPMPB8pSgPSm.jpg",
      "id": 290859,
      "adult": false,
      "backdrop_path": "\/a6cDxdwaQIFjSkXf7uskg78ZyTq.jpg",
      "original_language": "en",
      "original_title": "Terminator: Dark Fate",
      "genre_ids": [
        28,
        878
      ],
      "title": "O Exterminador do Futuro: Destino Sombrio",
      "vote_average": 6.4,
      "overview": "Mais de duas décadas após os eventos de \"O Julgamento Final\", Sarah Connor (Linda Hamilton) precisa proteger uma jovem chamada Dani Ramos (Natalia Reyes) e seus amigos de um Exterminador (Gabriel Luna) enviado do futuro para aniquilá-las.",
      "release_date": "2019-10-23"
    },
    {
      "popularity": 159.463,
      "vote_count": 0,
      "video": false,
      "poster_path": "\/mAWBfTDAmfpvQGMVFuzuVl49N1P.jpg",
      "id": 449924,
      "adult": false,
      "backdrop_path": "\/ekP6EVxL81lZ4ivcqPsoZ72rY0h.jpg",
      "original_language": "cn",
      "original_title": "葉問4",
      "genre_ids": [
        28,
        18,
        36
      ],
      "title": "O Grande Mestre 4 - A Batalha Final",
      "vote_average": 0,
      "overview": "Ip Man 4 é um próximo filme biográfico de artes marciais de Hong Kong dirigido por Wilson Yip e produzido por Raymond Wong. É o quarto da série de filmes Ip Man baseado na vida do grande mestre Wing Chun de mesmo nome e apresenta Donnie Yen reprisando o papel.",
      "release_date": "2019-12-20"
    }
  ]
}